Análisis exploratorio de datos
…
Ejemplo en R

El siguiente conjunto de datos da las medidas en centimetros de las
variables largo y ancho, tanto del sepalo como del petalo, para 3
especies de flores, iris setosa, versicolor y virginica.

##   Sepal.Length Sepal.Width Petal.Length Petal.Width Species
## 1          5.1         3.5          1.4         0.2  setosa
## 2          4.9         3.0          1.4         0.2  setosa
## 3          4.7         3.2          1.3         0.2  setosa
## 4          4.6         3.1          1.5         0.2  setosa
## 5          5.0         3.6          1.4         0.2  setosa
## 6          5.4         3.9          1.7         0.4  setosa

## # A tibble: 35 x 2
##    `iris$Sepal.Length` frequency
##                  <dbl>     <int>
##  1                 4.3         1
##  2                 4.4         3
##  3                 4.5         1
##  4                 4.6         4
##  5                 4.7         2
##  6                 4.8         5
##  7                 4.9         6
##  8                 5          10
##  9                 5.1         9
## 10                 5.2         4
## # i 25 more rows
…
